\relax 
\providecommand\hyper@newdestlabel[2]{}
\@writefile{toc}{\contentsline {chapter}{Lots}{34}{chapter*.37}\protected@file@percent }
\@writefile{toc}{\contentsline {section}{Lot 1}{35}{figure.caption.38}\protected@file@percent }
\@writefile{toc}{\contentsline {subsection}{Mise en place de l'architecture réseau}{35}{figure.caption.39}\protected@file@percent }
\@writefile{lof}{\contentsline {figure}{\numberline {28}{\ignorespaces Ping entre PC1 et PC2\relax }}{36}{figure.caption.41}\protected@file@percent }
\newlabel{fig:lot1Ping}{{28}{36}{Ping entre PC1 et PC2\relax }{figure.caption.41}{}}
\@writefile{lof}{\contentsline {figure}{\numberline {29}{\ignorespaces Ping venant du PC1\relax }}{36}{figure.caption.42}\protected@file@percent }
\newlabel{fig:lot1Pingpc1}{{29}{36}{Ping venant du PC1\relax }{figure.caption.42}{}}
\@writefile{toc}{\contentsline {subsection}{Mise en place du contrôleur}{37}{figure.caption.42}\protected@file@percent }
\@writefile{toc}{\contentsline {subsection}{Communication avec la base OVSDB}{38}{figure.caption.42}\protected@file@percent }
\@writefile{toc}{\contentsline {subsection}{Interaction avec l'API via un programme python}{39}{figure.caption.43}\protected@file@percent }
\newlabel{fig:pythonsoft}{{31a}{40}{Le programme python\relax }{figure.caption.44}{}}
\newlabel{sub@fig:pythonsoft}{{a}{40}{Le programme python\relax }{figure.caption.44}{}}
\@writefile{toc}{\contentsline {subsection}{Test de l'application}{40}{figure.caption.44}\protected@file@percent }
\@writefile{lof}{\contentsline {figure}{\numberline {32}{\ignorespaces Ping entre PC1 et PC2\relax }}{40}{figure.caption.45}\protected@file@percent }
\newlabel{fig:lot1Pingpc1err}{{32}{40}{Ping entre PC1 et PC2\relax }{figure.caption.45}{}}
\@writefile{toc}{\contentsline {section}{Lot 2}{41}{figure.caption.45}\protected@file@percent }
\@writefile{toc}{\contentsline {subsection}{Mise en place de l'architecture réseau}{41}{figure.caption.45}\protected@file@percent }
\@writefile{toc}{\contentsline {subsection}{Mise en place du contrôleur}{43}{figure.caption.45}\protected@file@percent }
\@writefile{toc}{\contentsline {subsection}{Test de l'application}{44}{figure.caption.46}\protected@file@percent }
\newlabel{fig:pythonsoft2}{{34a}{44}{Le programme python\relax }{figure.caption.47}{}}
\newlabel{sub@fig:pythonsoft2}{{a}{44}{Le programme python\relax }{figure.caption.47}{}}
\@writefile{lof}{\contentsline {figure}{\numberline {35}{\ignorespaces Ping entre PC1 et PC3\relax }}{44}{figure.caption.48}\protected@file@percent }
\newlabel{fig:lot1Pingpc1pc3}{{35}{44}{Ping entre PC1 et PC3\relax }{figure.caption.48}{}}
\@writefile{toc}{\contentsline {section}{Lot 3}{45}{figure.caption.48}\protected@file@percent }
\newlabel{fig:simu}{{36a}{45}{Le programme de simulation\relax }{figure.caption.49}{}}
\newlabel{sub@fig:simu}{{a}{45}{Le programme de simulation\relax }{figure.caption.49}{}}
\@writefile{toc}{\contentsline {subsection}{Mise en place du contrôleur}{45}{figure.caption.49}\protected@file@percent }
\@setckpt{chapters/lots}{
\setcounter{page}{48}
\setcounter{equation}{0}
\setcounter{enumi}{9}
\setcounter{enumii}{0}
\setcounter{enumiii}{0}
\setcounter{enumiv}{0}
\setcounter{footnote}{0}
\setcounter{mpfootnote}{0}
\setcounter{part}{0}
\setcounter{chapter}{0}
\setcounter{section}{0}
\setcounter{subsection}{0}
\setcounter{subsubsection}{0}
\setcounter{paragraph}{0}
\setcounter{subparagraph}{0}
\setcounter{figure}{36}
\setcounter{table}{3}
\setcounter{section@level}{0}
\setcounter{Item}{9}
\setcounter{Hfootnote}{0}
\setcounter{bookmark@seq@number}{0}
\setcounter{lstnumber}{31}
\setcounter{FancyVerbLine}{13}
\setcounter{linenumber}{1}
\setcounter{LN@truepage}{48}
\setcounter{FV@TrueTabGroupLevel}{0}
\setcounter{FV@TrueTabCounter}{0}
\setcounter{FV@HighlightLinesStart}{0}
\setcounter{FV@HighlightLinesStop}{0}
\setcounter{FancyVerbLineBreakLast}{0}
\setcounter{float@type}{32}
\setcounter{minted@FancyVerbLineTemp}{28}
\setcounter{minted@pygmentizecounter}{87}
\setcounter{listing}{0}
\setcounter{tabx@nest}{0}
\setcounter{listtotal}{0}
\setcounter{listcount}{0}
\setcounter{liststart}{0}
\setcounter{liststop}{0}
\setcounter{citecount}{0}
\setcounter{citetotal}{0}
\setcounter{multicitecount}{0}
\setcounter{multicitetotal}{0}
\setcounter{instcount}{14}
\setcounter{maxnames}{3}
\setcounter{minnames}{3}
\setcounter{maxitems}{3}
\setcounter{minitems}{1}
\setcounter{citecounter}{0}
\setcounter{maxcitecounter}{0}
\setcounter{savedcitecounter}{0}
\setcounter{uniquelist}{0}
\setcounter{uniquename}{0}
\setcounter{refsection}{0}
\setcounter{refsegment}{0}
\setcounter{maxextratitle}{0}
\setcounter{maxextratitleyear}{0}
\setcounter{maxextraname}{0}
\setcounter{maxextradate}{0}
\setcounter{maxextraalpha}{0}
\setcounter{abbrvpenalty}{50}
\setcounter{highnamepenalty}{50}
\setcounter{lownamepenalty}{25}
\setcounter{maxparens}{3}
\setcounter{parenlevel}{0}
\setcounter{blx@maxsection}{0}
\setcounter{mincomprange}{10}
\setcounter{maxcomprange}{100000}
\setcounter{mincompwidth}{1}
\setcounter{afterword}{0}
\setcounter{savedafterword}{0}
\setcounter{annotator}{0}
\setcounter{savedannotator}{0}
\setcounter{author}{0}
\setcounter{savedauthor}{0}
\setcounter{bookauthor}{0}
\setcounter{savedbookauthor}{0}
\setcounter{commentator}{0}
\setcounter{savedcommentator}{0}
\setcounter{editor}{0}
\setcounter{savededitor}{0}
\setcounter{editora}{0}
\setcounter{savededitora}{0}
\setcounter{editorb}{0}
\setcounter{savededitorb}{0}
\setcounter{editorc}{0}
\setcounter{savededitorc}{0}
\setcounter{foreword}{0}
\setcounter{savedforeword}{0}
\setcounter{holder}{0}
\setcounter{savedholder}{0}
\setcounter{introduction}{0}
\setcounter{savedintroduction}{0}
\setcounter{namea}{0}
\setcounter{savednamea}{0}
\setcounter{nameb}{0}
\setcounter{savednameb}{0}
\setcounter{namec}{0}
\setcounter{savednamec}{0}
\setcounter{translator}{0}
\setcounter{savedtranslator}{0}
\setcounter{shortauthor}{0}
\setcounter{savedshortauthor}{0}
\setcounter{shorteditor}{0}
\setcounter{savedshorteditor}{0}
\setcounter{labelname}{0}
\setcounter{savedlabelname}{0}
\setcounter{institution}{0}
\setcounter{savedinstitution}{0}
\setcounter{lista}{0}
\setcounter{savedlista}{0}
\setcounter{listb}{0}
\setcounter{savedlistb}{0}
\setcounter{listc}{0}
\setcounter{savedlistc}{0}
\setcounter{listd}{0}
\setcounter{savedlistd}{0}
\setcounter{liste}{0}
\setcounter{savedliste}{0}
\setcounter{listf}{0}
\setcounter{savedlistf}{0}
\setcounter{location}{0}
\setcounter{savedlocation}{0}
\setcounter{organization}{0}
\setcounter{savedorganization}{0}
\setcounter{origlocation}{0}
\setcounter{savedoriglocation}{0}
\setcounter{origpublisher}{0}
\setcounter{savedorigpublisher}{0}
\setcounter{publisher}{0}
\setcounter{savedpublisher}{0}
\setcounter{language}{0}
\setcounter{savedlanguage}{0}
\setcounter{origlanguage}{0}
\setcounter{savedoriglanguage}{0}
\setcounter{pageref}{0}
\setcounter{savedpageref}{0}
\setcounter{textcitecount}{0}
\setcounter{textcitetotal}{0}
\setcounter{textcitemaxnames}{0}
\setcounter{biburlbigbreakpenalty}{100}
\setcounter{biburlbreakpenalty}{200}
\setcounter{biburlnumpenalty}{0}
\setcounter{biburlucpenalty}{0}
\setcounter{biburllcpenalty}{0}
\setcounter{smartand}{1}
\setcounter{bbx:relatedcount}{0}
\setcounter{bbx:relatedtotal}{0}
\setcounter{cbx@tempcnta}{0}
\setcounter{cbx@tempcntb}{12}
\setcounter{cbx@tempcntc}{0}
\setcounter{cbx@tempcntd}{-1}
\setcounter{caption@flags}{4}
\setcounter{continuedfloat}{0}
\setcounter{blindtext}{1}
\setcounter{Blindtext}{5}
\setcounter{blind@countparstart}{0}
\setcounter{blindlist}{0}
\setcounter{blindlistlevel}{0}
\setcounter{blindlist@level}{0}
\setcounter{blind@listcount}{0}
\setcounter{blind@levelcount}{0}
\setcounter{blind@randomcount}{0}
\setcounter{blind@randommax}{0}
\setcounter{blind@pangramcount}{0}
\setcounter{blind@pangrammax}{0}
\setcounter{tcbbreakpart}{1}
\setcounter{tcblayer}{0}
\setcounter{tcolorbox@number}{11}
\setcounter{tcbrastercolumn}{1}
\setcounter{tcbrasterrow}{1}
\setcounter{tcbrasternum}{1}
\setcounter{tcbraster}{0}
\setcounter{parentequation}{0}
\setcounter{tcblisting}{0}
\setcounter{subfigure}{1}
\setcounter{subtable}{0}
\setcounter{tikzumlPackageLayers}{3}
\setcounter{tikzumlFragmentLayers}{3}
\setcounter{tikzumlStateLayers}{3}
\setcounter{tikzumlComponentLayers}{3}
\setcounter{tikzumlPackageClassNum}{0}
\setcounter{tikzumlPackageSubPackageNum}{0}
\setcounter{tikzumlRelationNum}{1}
\setcounter{tikzumlNoteNum}{1}
\setcounter{pos}{0}
\setcounter{posT}{0}
\setcounter{posStereo}{0}
\setcounter{tikzumlPackageLevel}{0}
\setcounter{tikzumlSystemUseCaseNum}{0}
\setcounter{tikzumlSystemLevel}{0}
\setcounter{tikzumlUseCaseNum}{0}
\setcounter{tikzumlActorNum}{0}
\setcounter{tikzumlStateJoinNum}{0}
\setcounter{tikzumlStateDecisionNum}{0}
\setcounter{tikzumlStateInitialNum}{0}
\setcounter{tikzumlStateFinalNum}{0}
\setcounter{tikzumlStateEnterNum}{0}
\setcounter{tikzumlStateExitNum}{0}
\setcounter{tikzumlStateEndNum}{0}
\setcounter{tikzumlStateHistoryNum}{0}
\setcounter{tikzumlStateDeepHistoryNum}{0}
\setcounter{tikzumlStateLevel}{0}
\setcounter{tikzumlStateSubStateNum}{0}
\setcounter{tikzumlStateText}{0}
\setcounter{tikzumlObjectNum}{0}
\setcounter{tikzumlCallLevel}{0}
\setcounter{tikzumlCallNum}{0}
\setcounter{tikzumlFragmentLevel}{0}
\setcounter{tikzumlFragmentLevelNum}{0}
\setcounter{tikzumlFragmentNum}{0}
\setcounter{tikzumlFragmentPartNum}{0}
\setcounter{tikzumlCallStartFragmentNum}{0}
\setcounter{tikzumlCallEndFragmentNum}{0}
\setcounter{tikzumlSDNodeNum}{0}
\setcounter{tikzumlComponentLevel}{0}
\setcounter{tikzumlComponentSubComponentNum}{0}
\setcounter{tikzumlConnectorNum}{1}
\setcounter{lstlisting}{2}
}
